{
  "project_info": {
    "project_number": "245227573001",
    "firebase_url": "https://perfectgraduate-151911.firebaseio.com",
    "project_id": "perfectgraduate-151911",
    "storage_bucket": "perfectgraduate-151911.appspot.com"
  },
  "client": [
    {
      "client_info": {
        "mobilesdk_app_id": "1:245227573001:android:1e28d94d759f155f",
        "android_client_info": {
          "package_name": "com.perfectgraduate"
        }
      },
      "oauth_client": [
        {
          "client_id": "245227573001-6mtcqhqnlf5gfoa3t8vh2rkkvfvisfcr.apps.googleusercontent.com",
          "client_type": 3
        }
      ],
      "api_key": [
        {
          "current_key": "AIzaSyBGAQji7MDezEyC6HJmmtqNDNummnksm5k"
        }
      ],
      "services": {
        "analytics_service": {
          "status": 1
        },
        "appinvite_service": {
          "status": 2,
          "other_platform_oauth_client": [
            {
              "client_id": "245227573001-6mtcqhqnlf5gfoa3t8vh2rkkvfvisfcr.apps.googleusercontent.com",
              "client_type": 3
            }
          ]
        },
        "ads_service": {
          "status": 2
        }
      }
    }
  ],
  "configuration_version": "1"
}